%YAML 1.1
%TAG !u! tag:unity3d.com,2011:
--- !u!74 &7400000
AnimationClip:
  m_ObjectHideFlags: 0
  m_CorrespondingSourceObject: {fileID: 0}
  m_PrefabInstance: {fileID: 0}
  m_PrefabAsset: {fileID: 0}
  m_Name: MeleeEnemyHurt
  serializedVersion: 7
  m_Legacy: 0
  m_Compressed: 0
  m_UseHighQualityCurve: 1
  m_RotationCurves: []
  m_CompressedRotationCurves: []
  m_EulerCurves: []
  m_PositionCurves: []
  m_ScaleCurves: []
  m_FloatCurves: []
  m_PPtrCurves:
  - serializedVersion: 2
    curve:
    - time: 0
      value: {fileID: 21300000, guid: 5f19986d48ca1884b9127eb9081d50e5, type: 3}
    - time: 0.13333334
      value: {fileID: 21300000, guid: ce511a442954cca488468c142a05bd67, type: 3}
    - time: 0.25
      value: {fileID: 21300000, guid: 6e689369bee072649a697cfe316c4ec3, type: 3}
    - time: 0.38333333
      value: {fileID: 21300000, guid: 4301cbce265ff6a4c8ff66c5c6f724c9, type: 3}
    - time: 0.5
      value: {fileID: 21300000, guid: 406b967936cb4ef40a99df7d0edaea55, type: 3}
    attribute: m_Sprite
    path: 
    classID: 212
    script: {fileID: 0}
    flags: 2
  m_SampleRate: 60
  m_WrapMode: 0
  m_Bounds:
    m_Center: {x: 0, y: 0, z: 0}
    m_Extent: {x: 0, y: 0, z: 0}
  m_ClipBindingConstant:
    genericBindings:
    - serializedVersion: 2
      path: 0
      attribute: 0
      script: {fileID: 0}
      typeID: 212
      customType: 23
      isPPtrCurve: 1
      isIntCurve: 0
      isSerializeReferenceCurve: 0
    pptrCurveMapping:
    - {fileID: 21300000, guid: 5f19986d48ca1884b9127eb9081d50e5, type: 3}
    - {fileID: 21300000, guid: ce511a442954cca488468c142a05bd67, type: 3}
    - {fileID: 21300000, guid: 6e689369bee072649a697cfe316c4ec3, type: 3}
    - {fileID: 21300000, guid: 4301cbce265ff6a4c8ff66c5c6f724c9, type: 3}
    - {fileID: 21300000, guid: 406b967936cb4ef40a99df7d0edaea55, type: 3}
  m_AnimationClipSettings:
    serializedVersion: 2
    m_AdditiveReferencePoseClip: {fileID: 0}
    m_AdditiveReferencePoseTime: 0
    m_StartTime: 0
    m_StopTime: 0.51666665
    m_OrientationOffsetY: 0
    m_Level: 0
    m_CycleOffset: 0
    m_HasAdditiveReferencePose: 0
    m_LoopTime: 0
    m_LoopBlend: 0
    m_LoopBlendOrientation: 0
    m_LoopBlendPositionY: 0
    m_LoopBlendPositionXZ: 0
    m_KeepOriginalOrientation: 0
    m_KeepOriginalPositionY: 1
    m_KeepOriginalPositionXZ: 0
    m_HeightFromFeet: 0
    m_Mirror: 0
  m_EditorCurves: []
  m_EulerEditorCurves: []
  m_HasGenericRootTransform: 0
  m_HasMotionFloatCurves: 0
  m_Events:
  - time: 0.5
    functionName: FinalizaHurt
    data: 
    objectReferenceParameter: {fileID: 0}
    floatParameter: 0
    intParameter: 0
    messageOptions: 0
