%YAML 1.1
%TAG !u! tag:unity3d.com,2011:
--- !u!74 &7400000
AnimationClip:
  m_ObjectHideFlags: 0
  m_CorrespondingSourceObject: {fileID: 0}
  m_PrefabInstance: {fileID: 0}
  m_PrefabAsset: {fileID: 0}
  m_Name: MeleeEnemyRun
  serializedVersion: 7
  m_Legacy: 0
  m_Compressed: 0
  m_UseHighQualityCurve: 1
  m_RotationCurves: []
  m_CompressedRotationCurves: []
  m_EulerCurves: []
  m_PositionCurves: []
  m_ScaleCurves: []
  m_FloatCurves: []
  m_PPtrCurves:
  - serializedVersion: 2
    curve:
    - time: 0
      value: {fileID: 21300000, guid: 21fe408f149aa644f96c6de4c1a14cf2, type: 3}
    - time: 0.11666667
      value: {fileID: 21300000, guid: 28eaa4fe9ec231b4ea4db1881add8b76, type: 3}
    - time: 0.21666667
      value: {fileID: 21300000, guid: d0001584287f07a4c98b9257e6ab99bb, type: 3}
    - time: 0.33333334
      value: {fileID: 21300000, guid: ad6f9ef2dc3c6aa49bbca6a6762bffb1, type: 3}
    - time: 0.45
      value: {fileID: 21300000, guid: 4cdd7d54099f8c846bed71b8dfccdd45, type: 3}
    - time: 0.55
      value: {fileID: 21300000, guid: 8fa78da52af1f2c44a28b18cbb1f1317, type: 3}
    - time: 0.6666667
      value: {fileID: 21300000, guid: 6792473effab8ba4983db590c5d37edd, type: 3}
    - time: 0.78333336
      value: {fileID: 21300000, guid: ec99f12133092584b90d670dba47ded6, type: 3}
    - time: 0.8833333
      value: {fileID: 21300000, guid: 18bbbd77b746c3c4e88ab9ff5c9ebe7a, type: 3}
    - time: 1
      value: {fileID: 21300000, guid: 1f6a647adc237c741b5acfc9d4b0d52e, type: 3}
    attribute: m_Sprite
    path: 
    classID: 212
    script: {fileID: 0}
    flags: 2
  m_SampleRate: 60
  m_WrapMode: 0
  m_Bounds:
    m_Center: {x: 0, y: 0, z: 0}
    m_Extent: {x: 0, y: 0, z: 0}
  m_ClipBindingConstant:
    genericBindings:
    - serializedVersion: 2
      path: 0
      attribute: 0
      script: {fileID: 0}
      typeID: 212
      customType: 23
      isPPtrCurve: 1
      isIntCurve: 0
      isSerializeReferenceCurve: 0
    pptrCurveMapping:
    - {fileID: 21300000, guid: 21fe408f149aa644f96c6de4c1a14cf2, type: 3}
    - {fileID: 21300000, guid: 28eaa4fe9ec231b4ea4db1881add8b76, type: 3}
    - {fileID: 21300000, guid: d0001584287f07a4c98b9257e6ab99bb, type: 3}
    - {fileID: 21300000, guid: ad6f9ef2dc3c6aa49bbca6a6762bffb1, type: 3}
    - {fileID: 21300000, guid: 4cdd7d54099f8c846bed71b8dfccdd45, type: 3}
    - {fileID: 21300000, guid: 8fa78da52af1f2c44a28b18cbb1f1317, type: 3}
    - {fileID: 21300000, guid: 6792473effab8ba4983db590c5d37edd, type: 3}
    - {fileID: 21300000, guid: ec99f12133092584b90d670dba47ded6, type: 3}
    - {fileID: 21300000, guid: 18bbbd77b746c3c4e88ab9ff5c9ebe7a, type: 3}
    - {fileID: 21300000, guid: 1f6a647adc237c741b5acfc9d4b0d52e, type: 3}
  m_AnimationClipSettings:
    serializedVersion: 2
    m_AdditiveReferencePoseClip: {fileID: 0}
    m_AdditiveReferencePoseTime: 0
    m_StartTime: 0
    m_StopTime: 1.0166667
    m_OrientationOffsetY: 0
    m_Level: 0
    m_CycleOffset: 0
    m_HasAdditiveReferencePose: 0
    m_LoopTime: 1
    m_LoopBlend: 0
    m_LoopBlendOrientation: 0
    m_LoopBlendPositionY: 0
    m_LoopBlendPositionXZ: 0
    m_KeepOriginalOrientation: 0
    m_KeepOriginalPositionY: 1
    m_KeepOriginalPositionXZ: 0
    m_HeightFromFeet: 0
    m_Mirror: 0
  m_EditorCurves: []
  m_EulerEditorCurves: []
  m_HasGenericRootTransform: 0
  m_HasMotionFloatCurves: 0
  m_Events: []
